[
    {
        "name" : "Sanya",
        "surname" : "Ruben",
        "patronymic" : "Sergeevich",
        "course" : "3",
        "record_book" : "12412"
    },
    {
        "name" : "Roma",
        "surname" : "Dzyadik",
        "patronymic" : "Batbkovich",
        "course" : "3",
        "record_book" : "15335"
    }
]